<svg width="7" height="13" viewBox="0 0 7 13" fill="white" xmlns="http://www.w3.org/2000/svg">
<path d="M0.180905 12.8158C-0.0383737 12.5924 -0.0583081 12.243 0.121101 11.9967L0.180905 11.9262L5.50859 6.5L0.180905 1.07383C-0.0383737 0.850505 -0.0583081 0.501045 0.121101 0.25479L0.180905 0.18424C0.400183 -0.0390803 0.743318 -0.0593825 0.985116 0.123334L1.05439 0.18424L6.8191 6.05521C7.03837 6.27853 7.05831 6.62799 6.8789 6.87424L6.8191 6.94479L1.05439 12.8158C0.813183 13.0614 0.422111 13.0614 0.180905 12.8158Z"/>
</svg>
