<svg width="26" height="25" viewBox="0 0 26 25" fill="none" xmlns="http://www.w3.org/2000/svg">
<path d="M13.0111 25C6.10736 25 0.511108 19.4037 0.511108 12.5C0.511108 5.59625 6.10736 0 13.0111 0C19.9149 0 25.5111 5.59625 25.5111 12.5C25.5111 19.4037 19.9149 25 13.0111 25ZM6.77736 20.32C8.54679 21.7346 10.7457 22.5036 13.0111 22.5C15.4736 22.5 17.7274 21.61 19.4699 20.135C18.6558 19.2997 17.6824 18.6361 16.6074 18.1835C15.5324 17.7309 14.3775 17.4985 13.2111 17.5C12.0018 17.4986 10.8055 17.7486 9.69794 18.234C8.59039 18.7195 7.59583 19.4298 6.77736 20.32ZM5.03111 18.525C6.08168 17.4101 7.34945 16.5221 8.75628 15.9159C10.1631 15.3096 11.6792 14.9979 13.2111 15C14.6882 14.9981 16.1511 15.288 17.5158 15.853C18.8805 16.418 20.1202 17.247 21.1636 18.2925C22.2337 16.7864 22.8656 15.0133 22.9893 13.1699C23.113 11.3265 22.7235 9.48486 21.8642 7.84932C21.0049 6.21378 19.7093 4.84828 18.1211 3.90431C16.5329 2.96033 14.7142 2.4748 12.8669 2.50157C11.0195 2.52833 9.21568 3.06636 7.65551 4.05595C6.09533 5.04554 4.83981 6.448 4.02822 8.10775C3.21664 9.7675 2.88073 11.6196 3.05775 13.4587C3.23478 15.2977 3.91782 17.0518 5.03111 18.5262V18.525ZM13.0111 13.75C11.685 13.75 10.4133 13.2232 9.47557 12.2855C8.53789 11.3479 8.01111 10.0761 8.01111 8.75C8.01111 7.42392 8.53789 6.15215 9.47557 5.21447C10.4133 4.27678 11.685 3.75 13.0111 3.75C14.3372 3.75 15.609 4.27678 16.5466 5.21447C17.4843 6.15215 18.0111 7.42392 18.0111 8.75C18.0111 10.0761 17.4843 11.3479 16.5466 12.2855C15.609 13.2232 14.3372 13.75 13.0111 13.75ZM13.0111 11.25C13.6741 11.25 14.31 10.9866 14.7789 10.5178C15.2477 10.0489 15.5111 9.41304 15.5111 8.75C15.5111 8.08696 15.2477 7.45107 14.7789 6.98223C14.31 6.51339 13.6741 6.25 13.0111 6.25C12.3481 6.25 11.7122 6.51339 11.2433 6.98223C10.7745 7.45107 10.5111 8.08696 10.5111 8.75C10.5111 9.41304 10.7745 10.0489 11.2433 10.5178C11.7122 10.9866 12.3481 11.25 13.0111 11.25Z" fill="black"/>
</svg>
