<svg width="28" height="27" viewBox="0 0 28 27" fill="none" xmlns="http://www.w3.org/2000/svg">
<path d="M14.0111 27C6.55506 27 0.511108 20.9561 0.511108 13.5C0.511108 6.04395 6.55506 0 14.0111 0C21.4672 0 27.5111 6.04395 27.5111 13.5C27.5111 20.9561 21.4672 27 14.0111 27ZM7.27866 21.9456C9.18965 23.4734 11.5645 24.3039 14.0111 24.3C16.6706 24.3 19.1047 23.3388 20.9866 21.7458C20.1073 20.8437 19.0561 20.127 17.8951 19.6382C16.7341 19.1494 15.4868 18.8984 14.2271 18.9C12.9211 18.8985 11.629 19.1684 10.4329 19.6927C9.23674 20.217 8.16261 20.9842 7.27866 21.9456V21.9456ZM5.39271 20.007C6.52732 18.8029 7.89651 17.8439 9.4159 17.1892C10.9353 16.5344 12.5727 16.1978 14.2271 16.2C15.8223 16.1979 17.4023 16.511 18.8762 17.1212C20.3501 17.7314 21.6889 18.6268 22.8158 19.7559C23.9715 18.1293 24.654 16.2144 24.7876 14.2235C24.9211 12.2326 24.5005 10.2436 23.5725 8.47726C22.6444 6.71088 21.2451 5.23614 19.5299 4.21665C17.8146 3.19716 15.8505 2.67278 13.8553 2.70169C11.8602 2.7306 9.91205 3.31166 8.22706 4.38042C6.54207 5.44918 5.1861 6.96384 4.30959 8.75637C3.43308 10.5489 3.0703 12.5492 3.26148 14.5354C3.45267 16.5216 4.19036 18.4159 5.39271 20.0083V20.007ZM14.0111 14.85C12.5789 14.85 11.2054 14.2811 10.1927 13.2684C9.18004 12.2557 8.61111 10.8822 8.61111 9.45C8.61111 8.01783 9.18004 6.64432 10.1927 5.63162C11.2054 4.61893 12.5789 4.05 14.0111 4.05C15.4433 4.05 16.8168 4.61893 17.8295 5.63162C18.8422 6.64432 19.4111 8.01783 19.4111 9.45C19.4111 10.8822 18.8422 12.2557 17.8295 13.2684C16.8168 14.2811 15.4433 14.85 14.0111 14.85ZM14.0111 12.15C14.7272 12.15 15.4139 11.8655 15.9203 11.3592C16.4266 10.8528 16.7111 10.1661 16.7111 9.45C16.7111 8.73392 16.4266 8.04716 15.9203 7.54081C15.4139 7.03446 14.7272 6.75 14.0111 6.75C13.295 6.75 12.6083 7.03446 12.1019 7.54081C11.5956 8.04716 11.3111 8.73392 11.3111 9.45C11.3111 10.1661 11.5956 10.8528 12.1019 11.3592C12.6083 11.8655 13.295 12.15 14.0111 12.15Z" fill="black" fill-opacity="0.4"/>
</svg>
